<svg width="20" height="21" viewBox="0 0 20 21" fill="#A5ADB6" xmlns="http://www.w3.org/2000/svg">
<path fill-rule="evenodd" d="M5.88 2.38999L4.6 0.859985L0 4.70999L1.29 6.23999L5.88 2.38999ZM20 4.71999L15.4 0.859985L14.11 2.38999L18.71 6.24999L20 4.71999ZM9 6.99999H10.5V12.25L14.5 14.62L13.75 15.85L9 13V6.99999ZM10 2.99999C5.03 2.99999 1 7.02999 1 12C1 16.97 5.02 21 10 21C14.97 21 19 16.97 19 12C19 7.02999 14.97 2.99999 10 2.99999ZM3 12C3 15.87 6.13 19 10 19C13.87 19 17 15.87 17 12C17 8.12999 13.87 4.99999 10 4.99999C6.13 4.99999 3 8.12999 3 12Z"/>
  </svg>
