<?xml version="1.0" ?>
<svg id="Layer_1" style="enable-background:new 0 0 48 48;" version="1.1" fill="#ffffff" viewBox="0 0 48 48" xml:space="preserve"
     xmlns="http://www.w3.org/2000/svg" xmlns:xlink="http://www.w3.org/1999/xlink"><g><polygon points="30.8,45.7 9.1,24 30.8,2.3 32.2,3.7 11.9,24 32.2,44.3  "/></g></svg>
