<svg width="24" height="24" viewBox="0 0 24 24" fill="none" xmlns="http://www.w3.org/2000/svg">
<path d="M10.4297 0.427734V10.4297H0.427734V13.2832H10.4297V23.2852H13.2832V13.2832H23.2852V10.4297H13.2832V0.427734H10.4297Z" fill="#1E252C"/>
</svg>
