<svg width="481" height="220" viewBox="0 0 481 240" fill="none" xmlns="http://www.w3.org/2000/svg">
<path d="M114.57 138.873H135.598V168.567H114.57V208.711H77.7393V168.567H1.65674L0 145.373L77.3569 23.1562H114.57V138.873ZM36.7031 138.873H77.7393V73.3682L75.3179 77.5737L36.7031 138.873Z" fill="#2B27DA"/>
<path d="M459.426 138.873H480.454V168.567H459.426V208.711H422.596V168.567H346.513L344.856 145.373L422.213 23.1562H459.426V138.873ZM381.56 138.873H422.596V73.3682L420.174 77.5737L381.56 138.873Z" fill="#2B27DA"/>
<path fill-rule="evenodd" clip-rule="evenodd" d="M215.023 138.694C217.14 137.888 219.536 138.525 220.974 140.276L227.379 148.077C228.47 149.405 230.287 149.888 231.893 149.277L241.327 145.688C243.444 144.883 245.84 145.52 247.278 147.271L253.683 155.072C254.773 156.4 256.59 156.883 258.197 156.272L267.631 152.683C269.748 151.878 272.144 152.515 273.582 154.266L279.987 162.067C281.077 163.395 282.894 163.878 284.501 163.267L293.935 159.678C296.052 158.872 298.448 159.509 299.886 161.26L310.523 174.215C311.118 174.94 311.487 175.776 311.64 176.638C311.94 177.569 311.985 178.593 311.715 179.609L298.04 231.034C297.292 233.849 294.403 235.524 291.588 234.775L262.033 226.916C259.695 226.294 258.08 224.16 258.116 221.741C258.228 214.225 255.318 203.612 243.734 200.531C231.849 197.371 223.07 205.303 220.296 211.301C219.221 213.626 216.63 214.842 214.154 214.184L185.782 206.639C182.967 205.891 181.292 203.002 182.041 200.187L195.716 148.762C195.937 147.93 196.345 147.198 196.882 146.599C197.468 145.743 198.313 145.051 199.356 144.654L215.023 138.694Z" fill="#2B27DA"/>
<path fill-rule="evenodd" clip-rule="evenodd" d="M307.491 132.416C306.842 132.451 306.184 132.365 305.554 132.152C305.001 131.965 304.49 131.688 304.037 131.337L295.705 125.037C294.259 123.943 292.258 123.959 290.829 125.076L282.844 131.318C280.959 132.792 278.328 132.792 276.442 131.318L268.55 125.149C267.103 124.017 265.071 124.017 263.623 125.149L255.731 131.318C253.846 132.792 251.215 132.792 249.329 131.318L241.437 125.149C239.99 124.017 237.958 124.017 236.51 125.149L228.618 131.318C226.733 132.792 224.102 132.792 222.216 131.318L214.324 125.149C212.877 124.017 210.845 124.017 209.397 125.149L201.543 131.288C201.079 131.658 200.552 131.951 199.98 132.146C198.666 132.595 197.228 132.493 195.996 131.882C195.368 131.57 194.793 131.127 194.315 130.556C193.896 130.059 193.567 129.482 193.353 128.852C193.156 128.275 193.062 127.674 193.068 127.076L193.068 7.37672C193.068 4.45039 195.412 2.07813 198.304 2.07813L228.726 2.07813C231.13 2.07813 233.225 3.73443 233.806 6.09467C235.574 13.2701 241.613 23.0649 253.671 23.0649C265.751 23.0649 271.682 13.2434 272.851 6.46557C273.288 3.92912 275.464 2.07813 278.009 2.07812H307.213C310.105 2.07812 312.449 4.45038 312.449 7.37671L312.449 127.07C312.456 127.653 312.367 128.239 312.181 128.804C311.973 129.435 311.65 130.014 311.238 130.514C310.333 131.614 308.996 132.336 307.491 132.416ZM203.54 116.336L208.66 112.334C210.545 110.86 213.176 110.86 215.062 112.334L225.417 120.429L235.773 112.334C237.658 110.86 240.289 110.86 242.175 112.334L252.53 120.429L262.886 112.334C264.771 110.86 267.402 110.86 269.288 112.334L279.643 120.429L289.999 112.334C291.86 110.88 294.451 110.859 296.334 112.283L301.977 116.551L301.977 12.6753L282.031 12.6753C278.827 22.0786 270.058 33.6621 253.671 33.6621C237.132 33.6621 228.432 21.866 224.914 12.6753L203.54 12.6753L203.54 116.336Z" fill="#2B27DA"/>
<path d="M203.54 116.336L208.66 112.334C210.545 110.86 213.176 110.86 215.062 112.334L225.417 120.429L235.773 112.334C237.658 110.86 240.289 110.86 242.175 112.334L252.53 120.429L262.886 112.334C264.771 110.86 267.402 110.86 269.288 112.334L279.643 120.429L289.999 112.334C291.86 110.88 294.451 110.859 296.334 112.283L301.977 116.551L301.977 12.6753L282.031 12.6753C278.827 22.0786 270.058 33.6621 253.671 33.6621C237.132 33.6621 228.432 21.866 224.914 12.6753L203.54 12.6753L203.54 116.336Z" fill="#2B27DA"/>
<path fill-rule="evenodd" clip-rule="evenodd" d="M307.491 132.416C306.842 132.451 306.184 132.365 305.554 132.152C305.001 131.965 304.49 131.688 304.037 131.337L295.705 125.037C294.259 123.943 292.258 123.959 290.829 125.076L282.844 131.318C280.959 132.792 278.328 132.792 276.442 131.318L268.55 125.149C267.103 124.017 265.071 124.017 263.623 125.149L255.731 131.318C253.846 132.792 251.215 132.792 249.329 131.318L241.437 125.149C239.99 124.017 237.958 124.017 236.51 125.149L228.618 131.318C226.733 132.792 224.102 132.792 222.216 131.318L214.324 125.149C212.877 124.017 210.845 124.017 209.397 125.149L201.543 131.288C201.079 131.658 200.552 131.951 199.98 132.146C198.666 132.595 197.228 132.493 195.996 131.882C195.368 131.57 194.793 131.127 194.315 130.556C193.896 130.059 193.567 129.482 193.353 128.852C193.156 128.275 193.062 127.674 193.068 127.076L193.068 7.37672C193.068 4.45039 195.412 2.07813 198.304 2.07813L228.726 2.07813C231.13 2.07813 233.225 3.73443 233.806 6.09467C235.574 13.2701 241.613 23.0649 253.671 23.0649C265.751 23.0649 271.682 13.2434 272.851 6.46557C273.288 3.92912 275.464 2.07813 278.009 2.07812H307.213C310.105 2.07812 312.449 4.45038 312.449 7.37671L312.449 127.07C312.456 127.653 312.367 128.239 312.181 128.804C311.973 129.435 311.65 130.014 311.238 130.514C310.333 131.614 308.996 132.336 307.491 132.416ZM203.54 116.336L208.66 112.334C210.545 110.86 213.176 110.86 215.062 112.334L225.417 120.429L235.773 112.334C237.658 110.86 240.289 110.86 242.175 112.334L252.53 120.429L262.886 112.334C264.771 110.86 267.402 110.86 269.288 112.334L279.643 120.429L289.999 112.334C291.86 110.88 294.451 110.859 296.334 112.283L301.977 116.551L301.977 12.6753L282.031 12.6753C278.827 22.0786 270.058 33.6621 253.671 33.6621C237.132 33.6621 228.432 21.866 224.914 12.6753L203.54 12.6753L203.54 116.336Z" stroke="#2B27DA"/>
<path d="M203.54 116.336L208.66 112.334C210.545 110.86 213.176 110.86 215.062 112.334L225.417 120.429L235.773 112.334C237.658 110.86 240.289 110.86 242.175 112.334L252.53 120.429L262.886 112.334C264.771 110.86 267.402 110.86 269.288 112.334L279.643 120.429L289.999 112.334C291.86 110.88 294.451 110.859 296.334 112.283L301.977 116.551L301.977 12.6753L282.031 12.6753C278.827 22.0786 270.058 33.6621 253.671 33.6621C237.132 33.6621 228.432 21.866 224.914 12.6753L203.54 12.6753L203.54 116.336Z" stroke="#2B27DA"/>
<circle cx="235.094" cy="60.5781" r="4.5" fill="white"/>
<circle cx="271.491" cy="60.5781" r="4.5" fill="white"/>
<path d="M274.686 92.2245C271.032 87.9609 264.133 83.6973 253.368 83.6973C242.603 83.6973 235.704 87.9609 232.05 91.8692" stroke="white" stroke-width="5"/>
</svg>
