<svg width="40" height="33" viewBox="0 0 40 33" fill="none" xmlns="http://www.w3.org/2000/svg">
  <path d="M0 9.96678V27.5083C0 30.1661 2.12625 32.4252 4.91694 32.4252H35.0831C37.7409 32.4252 40 30.299 40 27.5083V9.96678C39.8671 7.30897 37.7409 5.31561 35.2159 5.31561H28.7043L28.5714 4.65116C27.907 1.99336 25.515 0 22.7243 0H17.01C14.2193 0 11.8272 1.86047 11.1628 4.65116V5.31561H4.65116C2.12625 5.31561 0 7.30897 0 9.96678ZM11.9601 7.30897C12.3588 7.30897 12.7575 7.04319 12.8904 6.51163L13.289 5.04983C13.6877 3.18937 15.2824 1.99336 17.1429 1.99336H22.8571C24.7176 1.99336 26.3123 3.18937 26.711 5.04983L27.1096 6.51163C27.2425 6.9103 27.6412 7.30897 28.0399 7.30897H35.3488C36.8106 7.30897 38.0066 8.50498 38.0066 9.96678V27.5083C38.0066 29.103 36.6777 30.4319 35.0831 30.4319H4.91694C3.32226 30.4319 1.99336 29.103 1.99336 27.5083V9.96678C1.99336 8.50498 3.18937 7.30897 4.65116 7.30897H11.9601Z" fill="white"/>
  <path d="M6.77617 12.8904C7.5101 12.8904 8.10507 12.2954 8.10507 11.5615C8.10507 10.8275 7.5101 10.2326 6.77617 10.2326C6.04224 10.2326 5.44727 10.8275 5.44727 11.5615C5.44727 12.2954 6.04224 12.8904 6.77617 12.8904Z" fill="white"/>
  <path d="M19.9326 27.2425C24.5838 27.2425 28.3047 23.5216 28.3047 18.8704C28.3047 14.2193 24.5838 10.4983 19.9326 10.4983C15.2815 10.4983 11.5605 14.2193 11.5605 18.8704C11.5605 23.5216 15.2815 27.2425 19.9326 27.2425ZM19.9326 12.4917C23.3878 12.4917 26.3114 15.4153 26.3114 18.8704C26.3114 22.3256 23.3878 25.2492 19.9326 25.2492C16.4775 25.2492 13.5539 22.3256 13.5539 18.8704C13.5539 15.4153 16.4775 12.4917 19.9326 12.4917Z" fill="white"/>
</svg>
